# Blender v2.79 (sub 0) OBJ File: 'Sponza_new.blend'
# www.blender.org
#
# The Atrium Sponza Palace, Dubrovnik, model created by Frank Meinl. 
# The original Sponza model was created by Marko Dabrovic.
# http://www.crytek.com/cryengine/cryengine3/downloads
# Public domain.
#
v 1.296146 -5.740289 -0.025063
v 13.021894 -5.740292 -0.025063
v 13.021894 6.433611 -0.025061
v -2.543565 -5.740289 -0.025063
v -14.285184 -5.740287 -0.025063
v -0.633419 6.438358 -0.025061
v -14.285184 6.443108 -0.025061
vt 2.621700 5.952500
vt -1.890500 5.952500
vt -1.890500 1.267900
vt 4.099200 5.952500
vt 8.617500 5.952500
vt 3.364200 1.266100
vt 8.617500 1.264200
vn 0.0000 -0.0000 1.0000
s off
f 1/1/1 2/2/1 3/3/1 4/4/1
f 5/5/1 4/4/1 3/3/1 6/6/1
f 7/7/1 5/5/1 6/6/1
v 13.022197 6.454304 4.155300
v 9.001704 6.454304 4.155300
v 9.001704 3.017628 4.155300
v 13.022197 3.017628 4.155300
v -10.301738 3.017628 4.155300
v -10.301738 6.454304 4.155300
v -14.322230 6.454304 4.155300
v -14.322230 3.017628 4.155300
v -10.301738 -2.305172 4.155299
v -14.322230 -2.305172 4.155299
v 9.001704 -2.305172 4.155299
v 9.001704 -5.741847 4.155298
v 13.022197 -5.741847 4.155298
v 13.022197 -2.305172 4.155299
v -14.322230 -5.741847 4.155298
v -10.301738 -5.741847 4.155298
vt 6.718900 3.185200
vt 5.731000 3.185200
vt 5.731000 2.327400
vt 6.718900 2.327400
vt 0.987900 2.327400
vt 0.987900 3.185200
vt 0.000000 3.185200
vt 0.000000 2.327400
vt 0.987900 1.017300
vt 0.000000 1.017300
vt 5.731000 1.017300
vt 5.731000 0.140900
vt 6.718900 0.140900
vt 6.718900 1.017300
vt 0.000000 0.140900
vt 0.987900 0.140900
vn 0.0000 -0.0000 1.0000
s 1
f 8/8/2 9/9/2 10/10/2 11/11/2
f 12/12/2 13/13/2 14/14/2 15/15/2
f 16/16/2 12/12/2 15/15/2 17/17/2
f 9/9/2 13/13/2 12/12/2 10/10/2
f 18/18/2 19/19/2 20/20/2 21/21/2
f 10/10/2 18/18/2 21/21/2 11/11/2
f 22/22/2 23/23/2 16/16/2 17/17/2
f 23/23/2 19/19/2 18/18/2 16/16/2
