# Blender v2.79 (sub 0) OBJ File: 'sibenik.blend'
# www.blender.org
#
# Sibenik cathedral by Marko Dabrovic, downloaded from:
# http://hdri.cgtechniques.com/~sibenik2/download/
# Copyright Marko Dabrovic
#
v 8.361000 -3.419000 0.001000
v 11.561001 -3.419000 0.001000
v 9.961000 -1.650000 0.001000
v -3.624002 3.567500 1.571000
v -4.274000 7.611000 1.571000
v -4.274000 7.361000 1.571000
v -2.664001 7.611000 1.571000
v -7.594300 7.361000 1.571000
v -2.664001 3.481000 1.571000
v -7.594300 3.567500 1.571000
v -4.274000 -7.379000 1.571000
v -3.824000 -7.679000 1.571000
v -3.824000 -5.309000 1.571000
v 0.001000 3.901000 0.151000
v 3.401000 3.901000 0.151000
v 0.001000 5.751000 0.151000
v 3.641000 4.211000 0.151000
v 3.666000 4.204301 0.151000
v 3.670030 4.246671 0.151000
v 3.616000 4.204301 0.151000
v 3.555329 4.131970 0.151000
v 3.597698 4.136000 0.151000
v 3.591000 4.161000 0.151000
v 3.901000 4.401000 0.151000
v 3.901000 5.751000 0.151000
v 3.597698 4.186000 0.151000
v 3.474223 4.077777 0.151000
v 3.724223 4.327777 0.151000
v 3.420030 3.996671 0.151000
v 3.805329 4.381970 0.151000
v 5.761000 5.751000 0.151000
v 5.761000 3.721000 0.151000
v 3.901000 3.721000 0.151000
v 7.611000 0.001000 0.001000
v 7.611000 1.652000 0.001000
v 6.186000 0.001000 0.001000
v 6.002169 0.925180 0.001000
v 5.778999 1.342702 0.001000
v 6.139596 0.472143 0.001000
v 7.611000 3.421000 0.001000
v 5.761000 3.421000 0.001000
v 5.478663 1.708663 0.001000
v 3.771000 2.416000 0.001000
v 3.771000 3.421000 0.001000
v 5.112702 2.008999 0.001000
v 4.695180 2.232169 0.001000
v 4.242143 2.369596 0.001000
v 0.001000 -5.749000 0.151000
v 3.401000 -3.899000 0.151000
v 0.001000 -3.899000 0.151000
v 3.591000 -4.159000 0.151000
v 3.597698 -4.134000 0.151000
v 3.555329 -4.129970 0.151000
v 3.597698 -4.184000 0.151000
v 3.641000 -4.209000 0.151000
v 3.670030 -4.244671 0.151000
v 3.666000 -4.202302 0.151000
v 3.901000 -5.749000 0.151000
v 3.901000 -4.399000 0.151000
v 3.474223 -4.075777 0.151000
v 3.616000 -4.202302 0.151000
v 3.724223 -4.325777 0.151000
v 3.420030 -3.994671 0.151000
v 3.805329 -4.379970 0.151000
v 5.761000 -5.749000 0.151000
v 5.761000 -3.719000 0.151000
v 3.901000 -3.719000 0.151000
v 7.611000 -1.650000 0.001000
v 5.778999 -1.340702 0.001000
v 6.002169 -0.923181 0.001000
v 6.139596 -0.470143 0.001000
v 7.611000 -3.419000 0.001000
v 5.761000 -3.419000 0.001000
v 5.478663 -1.706663 0.001000
v 3.771000 -3.419000 0.001000
v 3.771000 -2.414000 0.001000
v 5.112702 -2.006999 0.001000
v 4.695180 -2.230169 0.001000
v 4.242143 -2.367597 0.001000
v 3.901000 7.354200 0.151000
v 0.001000 7.354200 0.151000
v 7.611000 3.721000 0.151000
v 7.611000 5.751000 0.151000
v 7.611000 7.354200 0.151000
v 5.761000 7.354200 0.151000
v 0.001000 -7.352200 0.151000
v 3.901000 -7.352200 0.151000
v 7.611000 -5.749000 0.151000
v 7.611000 -3.719000 0.151000
v 7.611000 -7.352200 0.151000
v 5.761000 -7.352200 0.151000
v 8.061001 -5.749000 0.151000
v 8.061001 -3.719000 0.151000
v 8.061001 -7.352200 0.151000
v 11.861000 -3.719000 0.151000
v 11.861000 -5.749000 0.151000
v 12.311001 -5.749000 0.151000
v 12.311001 -3.719000 0.151000
v 11.861000 -7.352200 0.151000
v 12.311001 -7.352200 0.151000
v 9.961000 3.721000 0.151000
v 9.961000 5.751000 0.151000
v 12.311001 3.721000 0.151000
v 12.311001 5.751000 0.151000
v 14.161001 3.721000 0.151000
v 14.161001 5.751000 0.151000
v 16.011000 3.721000 0.151000
v 16.011000 5.751000 0.151000
v 17.861000 3.721000 0.151000
v 17.861000 5.751000 0.151000
v 19.710999 3.721000 0.151000
v 19.710999 5.751000 0.151000
v 21.560999 3.721000 0.151000
v 21.560999 5.751000 0.151000
v 23.410999 3.721000 0.151000
v 23.410999 5.751000 0.151000
v 25.261000 3.721000 0.151000
v 25.261000 5.751000 0.151000
v 27.110998 3.721000 0.151000
v 27.110998 5.751000 0.151000
v 14.161001 -3.719000 0.151000
v 14.161001 -5.749000 0.151000
v 16.011000 -5.749000 0.151000
v 16.011000 -3.719000 0.151000
v 17.861000 -3.719000 0.151000
v 17.861000 -5.749000 0.151000
v 19.710999 -5.749000 0.151000
v 19.710999 -3.719000 0.151000
v 21.560999 -3.719000 0.151000
v 21.560999 -5.749000 0.151000
v 23.410999 -5.749000 0.151000
v 23.410999 -3.719000 0.151000
v 25.261000 -3.719000 0.151000
v 25.261000 -5.749000 0.151000
v 27.110998 -5.749000 0.151000
v 27.110998 -3.719000 0.151000
v 8.361000 -7.352200 0.001000
v 11.561001 -7.352200 0.001000
v 11.561001 -5.749000 0.001000
v 8.361000 -5.749000 0.001000
v 9.961000 1.652000 0.001000
v 9.961000 0.001000 0.001000
v 9.961000 3.421000 0.001000
v 9.961000 7.354200 0.151000
v 12.311001 1.652000 0.001000
v 12.311001 0.001000 0.001000
v 12.311001 3.421000 0.001000
v 12.311001 7.354200 0.151000
v 12.311001 -1.650000 0.001000
v 12.311001 -3.419000 0.001000
v 14.161001 1.652000 0.001000
v 14.161001 0.001000 0.001000
v 14.161001 3.421000 0.001000
v 14.161001 7.354200 0.151000
v 14.161001 -1.650000 0.001000
v 14.161001 -3.419000 0.001000
v 14.161001 -7.352200 0.151000
v 16.011000 1.652000 0.001000
v 16.011000 0.001000 0.001000
v 17.861000 1.652000 0.001000
v 17.861000 0.001000 0.001000
v 16.011000 3.421000 0.001000
v 17.861000 3.421000 0.001000
v 16.011000 7.354200 0.151000
v 17.861000 7.354200 0.151000
v 16.011000 -1.650000 0.001000
v 17.861000 -1.650000 0.001000
v 16.011000 -3.419000 0.001000
v 17.861000 -3.419000 0.001000
v 16.011000 -7.352200 0.151000
v 17.861000 -7.352200 0.151000
v 19.710999 1.652000 0.001000
v 19.710999 0.001000 0.001000
v 21.560999 1.652000 0.001000
v 21.560999 0.001000 0.001000
v 19.710999 3.421000 0.001000
v 21.560999 3.421000 0.001000
v 19.710999 7.354200 0.151000
v 21.560999 7.354200 0.151000
v 19.710999 -1.650000 0.001000
v 21.560999 -1.650000 0.001000
v 19.710999 -3.419000 0.001000
v 21.560999 -3.419000 0.001000
v 19.710999 -7.352200 0.151000
v 21.560999 -7.352200 0.151000
v 23.410999 1.652000 0.001000
v 23.410999 0.001000 0.001000
v 25.261000 1.652000 0.001000
v 25.261000 0.001000 0.001000
v 23.410999 3.421000 0.001000
v 25.261000 3.421000 0.001000
v 23.410999 7.354200 0.151000
v 25.261000 7.354200 0.151000
v 23.410999 -1.650000 0.001000
v 25.261000 -1.650000 0.001000
v 23.410999 -3.419000 0.001000
v 25.261000 -3.419000 0.001000
v 23.410999 -7.352200 0.151000
v 25.261000 -7.352200 0.151000
v 27.110998 0.001000 0.001000
v 27.110998 1.652000 0.001000
v 27.110998 3.421000 0.001000
v 27.110998 7.354200 0.151000
v 27.110998 -1.650000 0.001000
v 27.110998 -3.419000 0.001000
v 27.110998 -7.352200 0.151000
v -7.591400 -7.379000 1.571000
v -7.591400 -5.309000 1.571000
v -3.824000 -4.213300 1.571000
v -7.591400 -4.213300 1.571000
vt -1.440615 4.127621
vt -2.697694 5.384700
vt -2.764083 4.061232
vt 0.522981 -3.325089
vt -0.810112 -5.168869
vt -0.711903 -5.070660
vt -1.442580 -4.536401
vt 0.592434 -6.374997
vt 0.179838 -2.913985
vt 2.082662 -4.884769
vt 5.078516 0.719759
vt 5.019591 1.014387
vt 4.088567 0.083363
vt -1.032065 -2.032065
vt -2.367711 -0.696419
vt -1.758813 -2.758813
vt -2.583771 -0.723917
vt -2.590961 -0.711465
vt -2.609188 -0.726526
vt -2.571319 -0.731107
vt -2.519071 -0.726526
vt -2.537298 -0.711465
vt -2.544487 -0.723917
vt -2.760548 -0.696419
vt -3.290878 -1.226748
vt -2.556940 -0.731107
vt -2.465920 -0.737098
vt -2.662339 -0.737098
vt -2.412770 -0.726526
vt -2.715489 -0.726526
vt -4.021555 -0.496071
vt -3.224096 0.301388
vt -2.493419 -0.429289
vt -2.489490 2.489490
vt -3.138064 1.840916
vt -1.929698 1.929698
vt -2.220534 1.494430
vt -2.296883 1.242742
vt -2.096551 1.726386
vt -3.832994 1.145987
vt -3.106245 0.419239
vt -2.322663 0.980996
vt -1.929698 0.032294
vt -2.324499 -0.362507
vt -2.296883 0.719250
vt -2.220534 0.467562
vt -2.096551 0.235606
vt 2.758813 1.758813
vt 0.696419 2.367711
vt 2.032065 1.032065
vt 0.723917 2.544487
vt 0.711465 2.537298
vt 0.726526 2.519071
vt 0.731107 2.556940
vt 0.723917 2.583771
vt 0.726526 2.609188
vt 0.711465 2.590961
vt 1.226749 3.290878
vt 0.696419 2.760548
vt 0.737098 2.465920
vt 0.731107 2.571319
vt 0.737098 2.662339
vt 0.726526 2.412770
vt 0.726526 2.715489
vt 0.496072 4.021555
vt -0.301388 3.224096
vt 0.429289 2.493419
vt -1.840916 3.138065
vt -1.242742 2.296883
vt -1.494429 2.220534
vt -1.726386 2.096551
vt -1.145987 3.832994
vt -0.419239 3.106245
vt -0.980996 2.322663
vt 0.362507 2.324499
vt -0.032294 1.929698
vt -0.719250 2.296883
vt -0.467562 2.220534
vt -0.235606 2.096551
vt -3.920675 -1.856545
vt -2.388610 -3.388610
vt -3.950844 1.028136
vt -4.748304 0.230677
vt -5.378100 -0.399119
vt -4.651352 -1.125868
vt 3.388610 2.388610
vt 1.856545 3.920675
vt -0.230677 4.748304
vt -1.028136 3.950844
vt 0.399120 5.378100
vt 1.125868 4.651351
vt -0.407454 4.925081
vt -1.204913 4.127621
vt 0.222343 5.554877
vt -2.697694 5.620402
vt -1.900234 6.417861
vt -2.077011 6.594638
vt -2.874471 5.797179
vt -1.270438 7.047658
vt -1.447215 7.224435
vt -4.874012 1.951304
vt -5.671471 1.153844
vt -5.797179 2.874471
vt -6.594638 2.077012
vt -6.523928 3.601220
vt -7.321387 2.803761
vt -7.250676 4.327968
vt -8.048136 3.530509
vt -7.977425 5.054717
vt -8.774884 4.257258
vt -8.704173 5.781465
vt -9.501633 4.984006
vt -9.430922 6.508214
vt -10.228381 5.710755
vt -10.157671 7.234963
vt -10.955130 6.437503
vt -10.884419 7.961712
vt -11.681879 7.164252
vt -11.611168 8.688459
vt -12.408627 7.891001
vt -3.601220 6.523928
vt -2.803760 7.321387
vt -3.530509 8.048136
vt -4.327968 7.250677
vt -5.054717 7.977426
vt -4.257257 8.774884
vt -4.984005 9.501633
vt -5.781465 8.704173
vt -6.508214 9.430923
vt -5.710754 10.228381
vt -6.437503 10.955131
vt -7.234962 10.157671
vt -7.961711 10.884419
vt -7.164252 11.681879
vt -7.891000 12.408628
vt -8.688459 11.611168
vt 0.104492 5.672728
vt -1.152587 6.929807
vt -1.782384 6.300011
vt -0.525305 5.042932
vt -4.061232 2.764084
vt -3.412657 3.412658
vt -4.756161 2.069155
vt -6.301268 0.524048
vt -4.984399 3.687251
vt -4.335825 4.335825
vt -5.679328 2.992322
vt -7.224435 1.447215
vt -3.687251 4.984399
vt -2.992322 5.679328
vt -5.711148 4.414000
vt -5.062574 5.062574
vt -6.406077 3.719071
vt -7.951183 2.173964
vt -4.414000 5.711148
vt -3.719070 6.406077
vt -2.173964 7.951183
vt -6.437896 5.140748
vt -5.789322 5.789322
vt -7.164645 5.867497
vt -6.516071 6.516071
vt -7.132825 4.445819
vt -7.859574 5.172568
vt -8.677932 2.900712
vt -9.404681 3.627461
vt -5.140748 6.437897
vt -5.867496 7.164645
vt -4.445819 7.132825
vt -5.172568 7.859574
vt -2.900712 8.677932
vt -3.627461 9.404681
vt -7.891393 6.594245
vt -7.242819 7.242819
vt -8.618142 7.320994
vt -7.969567 7.969568
vt -8.586322 5.899316
vt -9.313071 6.626065
vt -10.131429 4.354209
vt -10.858178 5.080958
vt -6.594245 7.891394
vt -7.320993 8.618142
vt -5.899316 8.586322
vt -6.626065 9.313071
vt -4.354209 10.131429
vt -5.080958 10.858178
vt -9.344891 8.047743
vt -8.696317 8.696317
vt -10.071639 8.774491
vt -9.423065 9.423066
vt -10.039820 7.352814
vt -10.766568 8.079563
vt -11.584927 5.807707
vt -12.311675 6.534456
vt -8.047742 9.344891
vt -8.774491 10.071640
vt -7.352813 10.039820
vt -8.079562 10.766569
vt -5.807707 11.584927
vt -6.534455 12.311675
vt -10.149814 10.149814
vt -10.798388 9.501240
vt -11.493317 8.806311
vt -13.038424 7.261204
vt -9.501239 10.798388
vt -8.806311 11.493317
vt -7.261203 13.038424
vt 6.381714 -0.583439
vt 5.568542 -1.396612
vt 3.658135 -0.347069
vt 5.138110 -1.827043
vn 0.0000 -0.0000 1.0000
s off
f 1/1/1 2/2/1 3/3/1
f 4/4/1 5/5/1 6/6/1
f 4/4/1 7/7/1 5/5/1
f 6/6/1 8/8/1 4/4/1
f 4/4/1 9/9/1 7/7/1
f 10/10/1 4/4/1 8/8/1
f 11/11/1 12/12/1 13/13/1
f 14/14/1 15/15/1 16/16/1
f 17/17/1 18/18/1 19/19/1
f 20/20/1 17/17/1 19/19/1
f 21/21/1 22/22/1 23/23/1
f 24/24/1 25/25/1 16/16/1
f 21/21/1 23/23/1 26/26/1
f 27/27/1 21/21/1 26/26/1
f 20/20/1 19/19/1 28/28/1
f 15/15/1 29/29/1 16/16/1
f 29/29/1 27/27/1 16/16/1
f 27/27/1 26/26/1 16/16/1
f 30/30/1 24/24/1 16/16/1
f 28/28/1 30/30/1 16/16/1
f 26/26/1 28/28/1 16/16/1
f 26/26/1 20/20/1 28/28/1
f 31/31/1 25/25/1 32/32/1
f 32/32/1 24/24/1 33/33/1
f 25/25/1 24/24/1 32/32/1
f 34/34/1 35/35/1 36/36/1
f 37/37/1 35/35/1 38/38/1
f 36/36/1 35/35/1 39/39/1
f 39/39/1 35/35/1 37/37/1
f 35/35/1 40/40/1 41/41/1
f 38/38/1 35/35/1 42/42/1
f 42/42/1 35/35/1 41/41/1
f 43/43/1 41/41/1 44/44/1
f 45/45/1 42/42/1 41/41/1
f 46/46/1 45/45/1 41/41/1
f 47/47/1 46/46/1 41/41/1
f 43/43/1 47/47/1 41/41/1
f 48/48/1 49/49/1 50/50/1
f 51/51/1 52/52/1 53/53/1
f 54/54/1 51/51/1 53/53/1
f 55/55/1 56/56/1 57/57/1
f 48/48/1 58/58/1 59/59/1
f 54/54/1 53/53/1 60/60/1
f 56/56/1 55/55/1 61/61/1
f 62/62/1 56/56/1 61/61/1
f 48/48/1 63/63/1 49/49/1
f 48/48/1 60/60/1 63/63/1
f 48/48/1 54/54/1 60/60/1
f 48/48/1 59/59/1 64/64/1
f 48/48/1 64/64/1 62/62/1
f 48/48/1 62/62/1 54/54/1
f 62/62/1 61/61/1 54/54/1
f 58/58/1 65/65/1 66/66/1
f 59/59/1 58/58/1 66/66/1
f 59/59/1 66/66/1 67/67/1
f 68/68/1 34/34/1 36/36/1
f 69/69/1 68/68/1 70/70/1
f 71/71/1 68/68/1 36/36/1
f 70/70/1 68/68/1 71/71/1
f 72/72/1 68/68/1 73/73/1
f 73/73/1 68/68/1 74/74/1
f 74/74/1 68/68/1 69/69/1
f 75/75/1 73/73/1 76/76/1
f 77/77/1 73/73/1 74/74/1
f 78/78/1 73/73/1 77/77/1
f 76/76/1 73/73/1 79/79/1
f 79/79/1 73/73/1 78/78/1
f 80/80/1 81/81/1 16/16/1
f 16/16/1 25/25/1 80/80/1
f 32/32/1 82/82/1 83/83/1
f 83/83/1 31/31/1 32/32/1
f 31/31/1 83/83/1 84/84/1
f 84/84/1 85/85/1 31/31/1
f 31/31/1 85/85/1 80/80/1
f 80/80/1 25/25/1 31/31/1
f 48/48/1 86/86/1 87/87/1
f 87/87/1 58/58/1 48/48/1
f 88/88/1 89/89/1 66/66/1
f 66/66/1 65/65/1 88/88/1
f 90/90/1 88/88/1 65/65/1
f 65/65/1 91/91/1 90/90/1
f 87/87/1 91/91/1 65/65/1
f 65/65/1 58/58/1 87/87/1
f 88/88/1 92/92/1 93/93/1
f 93/93/1 89/89/1 88/88/1
f 90/90/1 94/94/1 92/92/1
f 92/92/1 88/88/1 90/90/1
f 95/95/1 96/96/1 97/97/1
f 97/97/1 98/98/1 95/95/1
f 97/97/1 96/96/1 99/99/1
f 99/99/1 100/100/1 97/97/1
f 83/83/1 82/82/1 101/101/1
f 101/101/1 102/102/1 83/83/1
f 101/101/1 103/103/1 104/104/1
f 104/104/1 102/102/1 101/101/1
f 104/104/1 103/103/1 105/105/1
f 105/105/1 106/106/1 104/104/1
f 105/105/1 107/107/1 108/108/1
f 108/108/1 106/106/1 105/105/1
f 108/108/1 107/107/1 109/109/1
f 109/109/1 110/110/1 108/108/1
f 109/109/1 111/111/1 112/112/1
f 112/112/1 110/110/1 109/109/1
f 112/112/1 111/111/1 113/113/1
f 113/113/1 114/114/1 112/112/1
f 113/113/1 115/115/1 116/116/1
f 116/116/1 114/114/1 113/113/1
f 116/116/1 115/115/1 117/117/1
f 117/117/1 118/118/1 116/116/1
f 117/117/1 119/119/1 120/120/1
f 120/120/1 118/118/1 117/117/1
f 121/121/1 98/98/1 97/97/1
f 97/97/1 122/122/1 121/121/1
f 123/123/1 124/124/1 121/121/1
f 121/121/1 122/122/1 123/123/1
f 125/125/1 124/124/1 123/123/1
f 123/123/1 126/126/1 125/125/1
f 127/127/1 128/128/1 125/125/1
f 125/125/1 126/126/1 127/127/1
f 129/129/1 128/128/1 127/127/1
f 127/127/1 130/130/1 129/129/1
f 131/131/1 132/132/1 129/129/1
f 129/129/1 130/130/1 131/131/1
f 133/133/1 132/132/1 131/131/1
f 131/131/1 134/134/1 133/133/1
f 135/135/1 136/136/1 133/133/1
f 133/133/1 134/134/1 135/135/1
f 137/137/1 138/138/1 139/139/1
f 139/139/1 140/140/1 137/137/1
f 140/140/1 139/139/1 2/2/1
f 2/2/1 1/1/1 140/140/1
f 1/1/1 68/68/1 72/72/1
f 1/1/1 3/3/1 68/68/1
f 141/141/1 35/35/1 34/34/1
f 34/34/1 142/142/1 141/141/1
f 143/143/1 40/40/1 35/35/1
f 35/35/1 141/141/1 143/143/1
f 102/102/1 144/144/1 84/84/1
f 84/84/1 83/83/1 102/102/1
f 34/34/1 68/68/1 3/3/1
f 3/3/1 142/142/1 34/34/1
f 145/145/1 141/141/1 142/142/1
f 142/142/1 146/146/1 145/145/1
f 147/147/1 143/143/1 141/141/1
f 141/141/1 145/145/1 147/147/1
f 148/148/1 144/144/1 102/102/1
f 102/102/1 104/104/1 148/148/1
f 142/142/1 3/3/1 149/149/1
f 149/149/1 146/146/1 142/142/1
f 3/3/1 2/2/1 150/150/1
f 150/150/1 149/149/1 3/3/1
f 151/151/1 145/145/1 146/146/1
f 146/146/1 152/152/1 151/151/1
f 153/153/1 147/147/1 145/145/1
f 145/145/1 151/151/1 153/153/1
f 106/106/1 154/154/1 148/148/1
f 148/148/1 104/104/1 106/106/1
f 146/146/1 149/149/1 155/155/1
f 155/155/1 152/152/1 146/146/1
f 149/149/1 150/150/1 156/156/1
f 156/156/1 155/155/1 149/149/1
f 100/100/1 157/157/1 122/122/1
f 122/122/1 97/97/1 100/100/1
f 158/158/1 151/151/1 152/152/1
f 152/152/1 159/159/1 158/158/1
f 160/160/1 158/158/1 159/159/1
f 159/159/1 161/161/1 160/160/1
f 162/162/1 153/153/1 151/151/1
f 151/151/1 158/158/1 162/162/1
f 163/163/1 162/162/1 158/158/1
f 158/158/1 160/160/1 163/163/1
f 164/164/1 154/154/1 106/106/1
f 106/106/1 108/108/1 164/164/1
f 110/110/1 165/165/1 164/164/1
f 164/164/1 108/108/1 110/110/1
f 152/152/1 155/155/1 166/166/1
f 166/166/1 159/159/1 152/152/1
f 159/159/1 166/166/1 167/167/1
f 167/167/1 161/161/1 159/159/1
f 155/155/1 156/156/1 168/168/1
f 168/168/1 166/166/1 155/155/1
f 166/166/1 168/168/1 169/169/1
f 169/169/1 167/167/1 166/166/1
f 122/122/1 157/157/1 170/170/1
f 170/170/1 123/123/1 122/122/1
f 170/170/1 171/171/1 126/126/1
f 126/126/1 123/123/1 170/170/1
f 172/172/1 160/160/1 161/161/1
f 161/161/1 173/173/1 172/172/1
f 174/174/1 172/172/1 173/173/1
f 173/173/1 175/175/1 174/174/1
f 176/176/1 163/163/1 160/160/1
f 160/160/1 172/172/1 176/176/1
f 177/177/1 176/176/1 172/172/1
f 172/172/1 174/174/1 177/177/1
f 178/178/1 165/165/1 110/110/1
f 110/110/1 112/112/1 178/178/1
f 114/114/1 179/179/1 178/178/1
f 178/178/1 112/112/1 114/114/1
f 161/161/1 167/167/1 180/180/1
f 180/180/1 173/173/1 161/161/1
f 173/173/1 180/180/1 181/181/1
f 181/181/1 175/175/1 173/173/1
f 167/167/1 169/169/1 182/182/1
f 182/182/1 180/180/1 167/167/1
f 180/180/1 182/182/1 183/183/1
f 183/183/1 181/181/1 180/180/1
f 126/126/1 171/171/1 184/184/1
f 184/184/1 127/127/1 126/126/1
f 184/184/1 185/185/1 130/130/1
f 130/130/1 127/127/1 184/184/1
f 186/186/1 174/174/1 175/175/1
f 175/175/1 187/187/1 186/186/1
f 188/188/1 186/186/1 187/187/1
f 187/187/1 189/189/1 188/188/1
f 190/190/1 177/177/1 174/174/1
f 174/174/1 186/186/1 190/190/1
f 191/191/1 190/190/1 186/186/1
f 186/186/1 188/188/1 191/191/1
f 192/192/1 179/179/1 114/114/1
f 114/114/1 116/116/1 192/192/1
f 118/118/1 193/193/1 192/192/1
f 192/192/1 116/116/1 118/118/1
f 175/175/1 181/181/1 194/194/1
f 194/194/1 187/187/1 175/175/1
f 187/187/1 194/194/1 195/195/1
f 195/195/1 189/189/1 187/187/1
f 181/181/1 183/183/1 196/196/1
f 196/196/1 194/194/1 181/181/1
f 194/194/1 196/196/1 197/197/1
f 197/197/1 195/195/1 194/194/1
f 130/130/1 185/185/1 198/198/1
f 198/198/1 131/131/1 130/130/1
f 198/198/1 199/199/1 134/134/1
f 134/134/1 131/131/1 198/198/1
f 189/189/1 200/200/1 201/201/1
f 201/201/1 188/188/1 189/189/1
f 202/202/1 191/191/1 188/188/1
f 188/188/1 201/201/1 202/202/1
f 203/203/1 193/193/1 118/118/1
f 118/118/1 120/120/1 203/203/1
f 204/204/1 200/200/1 189/189/1
f 189/189/1 195/195/1 204/204/1
f 195/195/1 197/197/1 205/205/1
f 205/205/1 204/204/1 195/195/1
f 134/134/1 199/199/1 206/206/1
f 206/206/1 135/135/1 134/134/1
f 207/207/1 11/11/1 13/13/1
f 13/13/1 208/208/1 207/207/1
f 13/13/1 209/209/1 210/210/1
f 210/210/1 208/208/1 13/13/1
